<?xml version="1.0" encoding="utf-8"?>
<!-- Generator: Adobe Illustrator 23.0.1, SVG Export Plug-In . SVG Version: 6.00 Build 0)  -->
<svg version="1.1" id="Layer_1" xmlns="http://www.w3.org/2000/svg" xmlns:xlink="http://www.w3.org/1999/xlink" x="0px" y="0px"
	 viewBox="0 0 149.9 75.8" style="enable-background:new 0 0 149.9 75.8;" xml:space="preserve">
<style type="text/css">
	.st0{fill:#D6D6D6;}
	.st1{opacity:0.7;fill:#0066CC;enable-background:new    ;}
</style>
<title>qodelogix-tire-left-front</title>
<path class="st0" d="M121.4,62c0.9,0.1,1.8,0.2,2.7,0.4c3,0.7,4.6,1.4,3.5,1.6c-1,0.2-3.8,0.6-5.3,0.6l-1.5,0.1l-0.3-0.5
	c-0.2-0.3-0.3-0.7-0.4-1.1C120.1,62.4,120.4,62,121.4,62z M85.4,60.3c1.6,0,2.7,0.1,2.7,0.2s-3.3,5.6-3.7,5.9
	c-0.2,0.2-4,0.3-20.8,0.5l-4.4,0.1l0.6-0.8c0.3-0.5,1-1.5,1.5-2.2c0.3-0.6,0.7-1.1,1.2-1.5c1.7-0.4,8.2-1.3,12.2-1.6
	C78.4,60.5,82.7,60.3,85.4,60.3z M94.3,60.2h3c3.7,0,10.8,0.3,14.7,0.5c2.3,0.1,2.9,0.2,3,0.4s0.2,1.7-0.1,3.3l-0.3,1.3l-0.7,0.1
	c-0.7,0.1-8.5,0.3-17.9,0.5c-3.3,0.1-4.6,0.1-4.6-0.1s0.7-1.5,1.4-3.1L94.3,60.2z M145.3,53.8l0.1,0.6c-0.2,1.7-0.8,3.4-1.6,4.9
	c-0.4,0.8-0.7,1.6-0.8,2.4c-0.6,3.4-3.6,5.8-7,5.6c-0.6,0-1.3-0.1-1.9-0.2c-0.4-0.1-0.7-0.2-1.1-0.4c-0.4-0.2-0.4-0.2,0.2-0.5
	c2.1-0.7,4.1-1.9,5.7-3.5c1.8-1.8,3.2-3.9,4.2-6.2c0.4-0.9,0.9-1.7,1.5-2.5L145.3,53.8z M4.1,52.7c0.2,0,0.4,0,0.6,0.1
	C6,53,6.2,53.2,7.2,54.7c1.3,1.7,2,2.3,5.1,4.1c4.6,2.7,10.9,6.6,11.1,7c0.5,0.8-0.1,0.9-4.4,1c-3.6,0-4.2,0-5.2-0.4
	c-3.2-1.2-5.8-3.4-8.2-7c-1.8-2.7-2.2-3.7-2.2-5.1C3.4,53.1,3.6,52.7,4.1,52.7z M137.6,14.4c1.2-0.1,1.5,1,2.8,3.3
	c3.5,6.5,4.5,12.1,4.2,22.4c-0.3,8.1-0.9,11.2-3.7,16.9c-2.4,5-2.5,5-6.1,3.3c-1.6-0.8-4.1-1.8-5.4-2.3c-0.9-0.3-1.7-0.6-2.4-1.1
	c0-0.1,0.7-1.5,1.5-3.1c2.5-5,3.4-9.1,3.4-16.1S130.9,27,128.4,22c-0.6-1-1-2.1-1.4-3.2c0.1-0.1,2.6-1.2,5.6-2.5
	C135.3,15.2,136.7,14.5,137.6,14.4z M39.3,12.2c0.7,0,19,4,22.1,4.9c2.1,0.6,6.1,1.9,8.7,3c6.1,2.4,9.2,3.2,12.2,3.2
	c2.3,0,2.5,0.1,4.4,2.1l2,2.1v20.8l-3.8,4.1l-3.7,0.2c-2.7,0.1-5.3,0.7-7.7,1.8c-7.4,2.9-15,5.1-22.7,6.6L40,63.4
	c-0.8,0.2-1.1-0.1-1.8-1.4c-1.6-3.9-2.9-7.9-3.8-12c-1.4-6.9-1.3-19.2,0.2-25.3C36.1,19.1,38.6,12.2,39.3,12.2z M121.6,10.9
	c0.3,0,0.7,0,1,0c1.8,0.2,3.6,0.4,5.4,0.8c0.4,0.3-1.8,1.1-4.6,1.6c-2,0.4-2.3,0.4-2.8,0.2s-0.6-0.8-0.3-1.6S120.8,11,121.6,10.9
	L121.6,10.9z M92.5,9.3c0.6,0,1.5,0,2.8,0.1c11.6,0.3,19.2,0.6,19.3,0.6c0.3,1.2,0.5,2.4,0.6,3.6c0,1.3,0.1,1.2-4.2,1.4
	c-2.9,0.1-13.8,0.5-16.4,0.5c-0.3,0-0.5-0.5-1.6-2.9c-0.7-1.6-1.3-3-1.4-3.2S91.6,9.3,92.5,9.3z M17.5,9.1h1.2c5,0,5.9,0.4,4,1.7
	c-1.1,0.7-8.2,5-11.1,6.7c-1.8,0.9-3.3,2.2-4.5,3.8c-0.4,0.6-0.9,1.1-1.5,1.5c-0.7,0.3-1.8,0.4-2.1,0.2c-0.1-0.5-0.2-0.9-0.1-1.4
	c0-1.3,0.4-2.3,1.9-4.6c1.4-2.1,3-4,4.9-5.6c0.9-0.7,1.9-1.2,3-1.6C14.8,9.1,15,9.1,17.5,9.1z M61.5,8.9H63c3.8,0,10,0.1,16.6,0.2
	l4.7,0.1l1.8,2.8c0.7,1,1.3,2.1,1.9,3.2c0.1,0.3,0,0.3-1.4,0.3c-0.8,0-2.9-0.1-4.7-0.1c-5.9-0.3-11.8-0.9-17.6-1.8l-2-0.3l-0.6-1
	c-0.3-0.5-1-1.5-1.4-2.1S59.4,9,59.3,8.9C60.1,8.8,60.8,8.8,61.5,8.9L61.5,8.9z M135.4,8.5c1.3-0.1,2.6,0.1,3.8,0.6
	c2,0.9,3.4,2.8,3.8,4.9c0.2,0.8,0.5,1.6,0.8,2.4c0.8,1.6,1.4,3.3,1.6,5l-0.1,0.7l-0.7-0.6c-0.6-0.7-1.1-1.4-1.4-2.3
	c-2.4-5.2-5.5-8.2-10.2-9.9c-0.4-0.1-0.4-0.2,0-0.4C133.7,8.6,134.6,8.4,135.4,8.5L135.4,8.5z M79.7,5.9L79.7,5.9z M61.5,0L61.5,0
	c-0.8,0-1.4,0.1-2.1,0.2c-0.7,0.1-1.3,0.4-1.9,0.7c-0.8,0.5-1.6,1.2-2.3,2c-0.5,0.7-1,1.3-1.5,2.1c-0.2,0.3-0.4,0.6-0.5,0.9
	c0,0,0,0.1,0,0.1C42.5,6,31.8,6.1,21,6.3c-6.6,0.2-12.7,3.5-16.4,9c-1.5,1.7-2.5,3.9-2.9,6.1C-0.8,28.2,0.3,35.6,0,42.7
	c-0.2,5.7,1,11.3,3.6,16.4c3,4.7,7.4,8.9,13.2,9.8c8,1.7,16.2,0.7,24.3,1h12.3V70c0.1,0.3,0.3,0.6,0.5,0.9c0.4,0.7,0.9,1.4,1.5,2.1
	c0.6,0.8,1.4,1.5,2.3,2c0.6,0.3,1.2,0.6,1.9,0.7c0.7,0.1,1.3,0.2,2,0.2c0.1,0,0.3,0,0.4-0.1c0.1-0.1,0.2-0.2,0.2-0.3
	c0-0.2,0-0.2-0.1-0.7c-0.2-0.6-0.4-1.2-0.7-1.8c-0.3-0.7-0.8-1.6-1.1-2.2c-0.2-0.4-0.4-0.6-0.5-0.9h16l0.1,0.1
	c0.2,0.2,0.4,0.3,0.6,0.4c0.5,0.1,0.9,0.2,1.4,0.1c1,0.1,3.7,0,4.4,0c0.4,0,0.9-0.1,1.3-0.2c0.3-0.1,0.5-0.2,0.6-0.4
	c8.1,0,16.2,0,24.3,0c0.4,0.1,0.9,0.1,1.3,0.1c1,0.1,3.7,0,4.4,0c0.4,0,0.7,0,1.1-0.1c6.7,0,13.4-0.1,20.1-0.2
	c4.8,0,9.2-2.9,10.9-7.4c4-9.9,3.9-20.9,3.5-31.4c-0.5-6.9-1.4-14.1-5.1-20c-3.3-4.7-9.8-4.9-15-4.8C124.7,6,119.7,6,114.8,6
	l-0.7-0.1c-0.8,0-3.4-0.1-4.4,0c-0.7,0-0.9,0-1.1,0.1H89.6L84,5.9c0-0.2-0.3-0.3-0.6-0.4c-0.4-0.2-0.8-0.2-1.3-0.2
	c-0.8,0-3.4-0.1-4.4,0c-0.5,0-0.9,0-1.4,0.1c-0.2,0.1-0.5,0.2-0.6,0.4l-0.1,0.1h-16c0.2-0.3,0.3-0.6,0.5-0.9
	c0.3-0.6,0.8-1.5,1.1-2.1c0.3-0.6,0.5-1.2,0.7-1.8C62,0.6,62,0.6,62,0.4c0-0.1,0-0.3-0.2-0.3C61.8,0,61.7,0,61.5,0L61.5,0z"/>
<path class="st1" d="M25.3,57.8h17.4c4.7,0,8.5,3.8,8.5,8.6v0c0,4.7-3.8,8.6-8.5,8.6H25.3c-4.7,0-8.5-3.8-8.5-8.6v0
	C16.8,61.6,20.6,57.8,25.3,57.8z"/>
</svg>
