<?xml version="1.0" encoding="utf-8"?>
<!-- Generator: Adobe Illustrator 23.0.1, SVG Export Plug-In . SVG Version: 6.00 Build 0)  -->
<svg version="1.1" id="Layer_1" xmlns="http://www.w3.org/2000/svg" xmlns:xlink="http://www.w3.org/1999/xlink" x="0px" y="0px"
	 viewBox="0 0 80 79.1" style="enable-background:new 0 0 80 79.1;" xml:space="preserve">
<style type="text/css">
	.st0{fill:#0066CC;}
</style>
<title>qodelogix-warning-lights-dsc</title>
<path class="st0" d="M39.9,57.2H20c-2.7,0-3.3-0.9-2.1-3.3C24.7,40.3,31.5,26.6,38.4,13c0.4-0.6,1-1.2,1.6-1.7
	c0.6,0.5,1.1,1.1,1.6,1.7c6.9,13.6,13.7,27.1,20.5,40.8c1.3,2.6,0.7,3.5-2.2,3.5L39.9,57.2z M43.9,30L43.9,30c0-0.5,0-1.1,0-1.6
	c0-2.4-1.5-3.8-4.2-3.7c-2.5,0.1-3.9,1.6-3.8,4c0.1,1.1,0.1,2.2,0.2,3.3c0.2,3.8,0.4,7.7,0.7,11.5c0,1.8,1.3,3.3,3,3.5
	c1.6,0.1,2.9-1.2,3.3-3.1c0-0.3,0.1-0.5,0.1-0.8C43.4,38.6,43.7,34.3,43.9,30L43.9,30z M39.9,54.1c1.8,0.1,3.4-1.2,3.6-3
	c-0.2-1.8-1.7-3.1-3.4-3.1c-1.8-0.2-3.5,1.1-3.7,2.9c0,0,0,0,0,0.1C36.5,52.8,38,54.2,39.9,54.1C39.9,54.1,39.9,54.1,39.9,54.1z"/>
<path class="st0" d="M23.9,68.8l1.8-3.6l8.7,12.5l-15.1,1.3c0.2-0.5,0.3-0.8,0.4-1.1c1.2-2.7,1.1-2.7-1.4-4.4
	C5.4,64.8-0.9,52.5,0.1,37C1.4,18.5,15.3,3.3,33.7,0.5c21.8-3.3,42.2,11.7,45.6,33.5c2.6,17-6,33.7-21.3,41.6
	c-0.9,0.5-1.8,0.7-2.8,0.8c-1.5,0.1-2.8-0.9-3.2-2.4c-0.5-1.4,0.1-3,1.3-3.8c0.5-0.3,1.1-0.7,1.7-0.9c11.8-6.5,18-16.5,18-30
	C73.1,22.9,59.8,8.6,43.4,7.1c-18-1.7-33.3,10.2-36.3,28.1C5,48,11.9,62.2,23.1,68.4C23.3,68.5,23.5,68.6,23.9,68.8z"/>
</svg>
