<?xml version="1.0" encoding="utf-8"?>
<!-- Generator: Adobe Illustrator 21.1.0, SVG Export Plug-In . SVG Version: 6.00 Build 0)  -->
<svg version="1.1" id="Layer_1" xmlns="http://www.w3.org/2000/svg" xmlns:xlink="http://www.w3.org/1999/xlink" x="0px" y="0px"
	 viewBox="0 0 120 120" style="enable-background:new 0 0 120 120;" xml:space="preserve">
<style type="text/css">
	.st0{fill:#CCCCCC;}
</style>
<path class="st0" d="M113.4,99.1l-11.7-18.2V57.4c0-17.5-10.6-32.6-25.7-38.9V16c0-8.8-7.2-16-16-16S44,7.2,44,16v2.5
	c-15.1,6.3-25.7,21.4-25.7,38.9v23.4L6.6,99.1c-0.8,1.3-0.9,2.9-0.2,4.2c0.7,1.3,2.1,2.2,3.6,2.2h31c2.1,8.4,9.8,14.6,18.8,14.6h0.3
	c9,0,16.7-6.2,18.8-14.6h31c1.5,0,2.9-0.8,3.6-2.1C114.3,101.9,114.2,100.3,113.4,99.1z M52.3,16c0-4.2,3.5-7.7,7.7-7.7
	c4.2,0,7.7,3.5,7.7,7.7v0c-2.5-0.5-5.1-0.7-7.7-0.7C57.4,15.3,54.8,15.5,52.3,16L52.3,16z M60.1,111.7h-0.3c-4.4,0-8.3-2.6-10.1-6.3
	h20.4C68.4,109.2,64.6,111.7,60.1,111.7z M17.6,97.2l8.3-12.9c0.4-0.7,0.7-1.4,0.7-2.2V57.4c0-18.7,15-33.9,33.4-33.9
	c18.4,0,33.4,15.2,33.4,33.9V82c0,0.8,0.2,1.6,0.7,2.2l8.3,12.9H17.6z"/>
</svg>
